<?xml version="1.0" encoding="utf-8"?>
<!-- Generator: Adobe Illustrator 24.2.0, SVG Export Plug-In . SVG Version: 6.00 Build 0)  -->
<svg version="1.1" id="Layer_1" xmlns="http://www.w3.org/2000/svg" xmlns:xlink="http://www.w3.org/1999/xlink" x="0px" y="0px"
	 viewBox="0 0 1079.6 265.9" style="enable-background:new 0 0 1079.6 265.9;" xml:space="preserve">
<style type="text/css">
	.st0{fill:#E1231B;}
	.st1{fill:#FFFFFF;}
	.st2{fill:#FF9015;}
	.st3{fill:#B1B1B1;}
</style>
<g>
	<path class="st0" d="M859.6,200.6h167V49.5H888.9c-16.2,0-29.3,13.2-29.3,29.6L859.6,200.6z"/>
	<path class="st1" d="M868.9,185.9c1.6,1.3,6.2,4.3,14.8,4.6c0.5,0,0.9,0,1.3,0l0,0c6.3,0,10.6-1.3,13.2-4c2.3-2.3,3.4-5.8,3.3-10.6
		c-0.2-8.9-7.1-12.6-12.9-13.2l-1.6-0.1c-6.2-0.5-11.1-1-11.1-7.9c0-4.5,3.4-7.2,9.2-7.2c5.1,0,8,1.6,9.2,2.6
		c1.6-1.2,3.1-2.6,4.5-4.2c-1.7-1.1-6.1-3.5-13.7-3.7h-0.6c-7,0-15.1,3.5-15.2,13.4c0,7.2,3.5,11,11.2,11.9l1.5,0.2
		c7,0.8,13,1.4,13,9.2c0,7.1-6.8,7.9-11.8,7.9c-5,0-8.2-2.1-9.6-3.2C871.8,182.9,870.3,184.3,868.9,185.9z"/>
	<path class="st1" d="M923.6,148.3c6.6,0,10.4,3,10.4,8.3v6.8l-12.1,0.2c-11.2,0.2-17.1,5.1-17.1,14.2c0,8.7,5.1,12.7,16,12.7
		c9.3,0,17.5-0.8,20.2-1.1v-32.3c0-9.9-5.5-14.5-17.5-14.5c-5.4,0-12.5,1.5-16.2,4.3c1.5,1.6,3.5,3.4,4.6,4.3
		C914.8,149.1,920.3,148.3,923.6,148.3z M920.8,185.7c-8.4,0-9.3-5.5-9.3-7.8c0-4.6,1.2-8.9,10.3-9l12.2-0.2v16.1l-0.9,0.1
		C932.8,184.9,928,185.7,920.8,185.7z"/>
	<path class="st1" d="M966.8,142.2c-13.1,0-20.8,7.9-20.8,23.5c0,16.3,6.5,24.2,22.9,24.2c8.1,0,12.9-2,14.6-2.9
		c-0.4-1.8-0.8-3.7-1.4-5.5c-4,2.2-8.6,3.2-13.2,2.8c-12.1-0.9-15.4-5.4-15.7-15.3v-0.6h33l0-4.6C986,150.1,979.7,142.2,966.8,142.2
		z M979,163.1h-25.7V162c0-8.1,5.1-14.4,13.6-14.4c4.2,0,12.2,3.4,12.2,14.5L979,163.1z"/>
	<path class="st1" d="M1026.7,49.5v151.1h-167V79c0-16.3,13.1-29.6,29.3-29.6L1026.7,49.5 M1026.7,47.8H888.9
		c-8.2,0-16.1,3.3-21.9,9.2c-5.8,5.9-9.1,13.8-9.1,22.1v121.6c0,0.9,0.8,1.7,1.7,1.7l0,0h167c0.9,0,1.7-0.8,1.7-1.7l0,0V49.5
		C1028.4,48.5,1027.6,47.8,1026.7,47.8L1026.7,47.8z"/>
</g>
<g>
	<g>
		<g>
			<g>
				<path class="st2" d="M377.5,67.2c7.3,4.7,13,10.9,17.1,18.6c4.1,7.7,6.1,15.9,6.1,24.5c0,4.3-0.5,8.5-1.6,12.7
					c-1.1,4.1-2.6,8-4.6,11.7c-2,3.7-4.4,7.1-7.3,10.2c-2.9,3.1-6.1,5.8-9.7,8.1c-2.4,1.6-5,2.9-7.7,3.9c-2.7,1.1-5.6,1.9-8.5,2.6
					s-5.9,1.2-8.8,1.5c-2.9,0.3-5.7,0.5-8.4,0.5h-42.3v-9.2h27.8h11.7c3,0,6-0.1,8.9-0.3c2.9-0.2,5.7-0.5,8.5-1.1
					c2.7-0.6,5.4-1.4,8-2.5c2.6-1.1,5.2-2.6,7.8-4.4c2.7-1.9,5-4.2,7-6.7c2-2.6,3.7-5.3,5-8.3c1.3-3,2.4-6.1,3-9.3s1-6.5,1-9.7
					c0-6.7-1.5-13.1-4.5-19.1s-7.3-11-12.9-14.8c-5.1-3.6-10.6-5.8-16.3-6.6c-5.7-0.8-11.6-1.2-17.7-1.2H334h-32.4v-9.5h42.5
					c5.5,0,11.3,0.7,17.3,2C367.5,61.9,372.8,64.1,377.5,67.2z"/>
				<rect x="284.5" y="105.3" class="st2" width="20.1" height="10.2"/>
			</g>
		</g>
		<g>
			<g>
				<g>
					<path class="st3" d="M304.5,177.4v19.7h12v1.7h-14v-21.4H304.5z"/>
					<path class="st3" d="M323.2,183.9c0.4-1.3,1-2.5,1.9-3.6c0.8-1,1.9-1.9,3.2-2.5s2.7-0.9,4.4-0.9c1.7,0,3.1,0.3,4.4,0.9
						s2.3,1.4,3.1,2.5c0.8,1,1.5,2.2,1.9,3.6s0.6,2.8,0.6,4.2s-0.2,2.9-0.6,4.2s-1,2.5-1.9,3.5c-0.8,1-1.9,1.8-3.1,2.4
						c-1.3,0.6-2.7,0.9-4.4,0.9s-3.1-0.3-4.4-0.9c-1.3-0.6-2.3-1.4-3.2-2.4s-1.5-2.2-1.9-3.5s-0.6-2.8-0.6-4.2
						S322.8,185.2,323.2,183.9z M325.1,191.6c0.3,1.1,0.8,2.1,1.4,3s1.5,1.6,2.5,2.1s2.2,0.8,3.7,0.8s2.6-0.3,3.6-0.8
						s1.8-1.2,2.5-2.1s1.1-1.9,1.4-3s0.5-2.3,0.5-3.4c0-1.2-0.2-2.3-0.5-3.4c-0.3-1.1-0.8-2.1-1.4-3s-1.5-1.6-2.5-2.1
						c-1-0.5-2.2-0.8-3.6-0.8s-2.6,0.3-3.7,0.8s-1.9,1.2-2.5,2.1s-1.1,1.9-1.4,3s-0.5,2.3-0.5,3.4
						C324.6,189.3,324.8,190.4,325.1,191.6z"/>
					<path class="st3" d="M352.5,194.5c0.4,0.7,0.9,1.3,1.5,1.8s1.4,0.8,2.2,0.9c0.9,0.2,1.8,0.3,2.8,0.3c0.6,0,1.2-0.1,1.8-0.2
						c0.7-0.2,1.3-0.4,1.8-0.8c0.6-0.4,1-0.8,1.4-1.4c0.4-0.6,0.6-1.2,0.6-2c0-0.6-0.1-1.1-0.4-1.6c-0.3-0.4-0.6-0.8-1-1.1
						s-0.9-0.5-1.4-0.7c-0.5-0.2-1-0.4-1.5-0.5l-4.8-1.2c-0.6-0.2-1.2-0.4-1.8-0.6s-1.1-0.6-1.5-1c-0.4-0.4-0.8-0.9-1.1-1.5
						c-0.3-0.6-0.4-1.3-0.4-2.1c0-0.5,0.1-1.1,0.3-1.8c0.2-0.7,0.6-1.4,1.1-2s1.3-1.1,2.3-1.6c1-0.4,2.2-0.6,3.7-0.6
						c1.1,0,2.1,0.1,3,0.4s1.8,0.7,2.5,1.3s1.3,1.2,1.7,2.1s0.6,1.8,0.6,2.9h-2c0-0.8-0.2-1.5-0.5-2.1c-0.3-0.6-0.8-1.1-1.3-1.5
						s-1.1-0.7-1.8-0.9c-0.7-0.2-1.4-0.3-2.2-0.3c-0.7,0-1.4,0.1-2,0.2s-1.2,0.4-1.7,0.7s-0.9,0.8-1.2,1.3c-0.3,0.5-0.5,1.2-0.5,2
						c0,0.5,0.1,0.9,0.2,1.3c0.2,0.4,0.4,0.7,0.7,0.9c0.3,0.3,0.6,0.5,1,0.6c0.4,0.2,0.8,0.3,1.2,0.4l5.2,1.3
						c0.8,0.2,1.5,0.4,2.1,0.7c0.7,0.3,1.3,0.6,1.8,1.1c0.5,0.4,0.9,0.9,1.2,1.6c0.3,0.6,0.4,1.4,0.4,2.2c0,0.2,0,0.6-0.1,1
						c0,0.4-0.2,0.8-0.4,1.3c-0.2,0.4-0.5,0.9-0.8,1.4s-0.8,0.9-1.4,1.2c-0.6,0.4-1.4,0.7-2.3,0.9c-0.9,0.2-2,0.4-3.2,0.4
						c-1.3,0-2.4-0.1-3.5-0.4c-1.1-0.3-2-0.7-2.8-1.3s-1.4-1.4-1.8-2.3c-0.4-0.9-0.6-2.1-0.5-3.4h2
						C352,192.9,352.2,193.8,352.5,194.5z"/>
					<path class="st3" d="M403.4,181.7c-0.4-0.6-0.9-1.2-1.5-1.6s-1.2-0.8-2-1c-0.7-0.2-1.5-0.3-2.2-0.3c-1.4,0-2.6,0.3-3.7,0.8
						s-1.9,1.2-2.5,2.1s-1.1,1.9-1.4,3s-0.5,2.3-0.5,3.4c0,1.2,0.1,2.3,0.5,3.4c0.3,1.1,0.8,2.1,1.4,3s1.5,1.6,2.5,2.1
						s2.2,0.8,3.7,0.8c1,0,1.9-0.2,2.7-0.5c0.8-0.4,1.5-0.9,2.1-1.5c0.6-0.6,1-1.3,1.4-2.2c0.4-0.8,0.6-1.7,0.7-2.7h2
						c-0.1,1.3-0.5,2.5-0.9,3.6c-0.5,1.1-1.1,2-1.9,2.7c-0.8,0.7-1.6,1.3-2.7,1.7c-1,0.4-2.2,0.6-3.4,0.6c-1.7,0-3.1-0.3-4.4-0.9
						c-1.3-0.6-2.3-1.4-3.2-2.4s-1.5-2.2-1.9-3.5s-0.6-2.8-0.6-4.2s0.2-2.9,0.6-4.2s1-2.5,1.9-3.6c0.8-1,1.9-1.9,3.2-2.5
						s2.7-0.9,4.4-0.9c1,0,2,0.1,3,0.4s1.9,0.7,2.6,1.3s1.5,1.3,2,2.2c0.5,0.9,0.9,1.9,1,3h-2C404.1,183.1,403.8,182.3,403.4,181.7z
						"/>
					<path class="st3" d="M423.4,177.4l8.4,21.4h-2.2l-2.6-6.7h-9.8l-2.6,6.7h-2.2l8.6-21.4H423.4z M426.3,190.4l-4.1-11l-4.3,11
						H426.3z"/>
					<path class="st3" d="M453.7,181.7c-0.4-0.6-0.9-1.2-1.5-1.6s-1.2-0.8-2-1c-0.7-0.2-1.5-0.3-2.2-0.3c-1.4,0-2.6,0.3-3.7,0.8
						s-1.9,1.2-2.5,2.1s-1.1,1.9-1.4,3s-0.5,2.3-0.5,3.4c0,1.2,0.1,2.3,0.5,3.4c0.3,1.1,0.8,2.1,1.4,3s1.5,1.6,2.5,2.1
						s2.2,0.8,3.7,0.8c1,0,1.9-0.2,2.7-0.5c0.8-0.4,1.5-0.9,2.1-1.5c0.6-0.6,1-1.3,1.4-2.2c0.4-0.8,0.6-1.7,0.7-2.7h2
						c-0.1,1.3-0.5,2.5-0.9,3.6c-0.5,1.1-1.1,2-1.9,2.7c-0.8,0.7-1.6,1.3-2.7,1.7c-1,0.4-2.2,0.6-3.4,0.6c-1.7,0-3.1-0.3-4.4-0.9
						c-1.3-0.6-2.3-1.4-3.2-2.4s-1.5-2.2-1.9-3.5s-0.6-2.8-0.6-4.2s0.2-2.9,0.6-4.2s1-2.5,1.9-3.6c0.8-1,1.9-1.9,3.2-2.5
						s2.7-0.9,4.4-0.9c1,0,2,0.1,3,0.4s1.9,0.7,2.6,1.3s1.5,1.3,2,2.2c0.5,0.9,0.9,1.9,1,3h-2C454.4,183.1,454.1,182.3,453.7,181.7z
						"/>
					<path class="st3" d="M479.9,177.4v1.7h-7.5v19.7h-2v-19.7h-7.4v-1.7H479.9z"/>
					<path class="st3" d="M488.9,177.4v13.2c0,1.2,0.1,2.3,0.4,3.2c0.3,0.9,0.7,1.6,1.2,2.1s1.2,0.9,2,1.2s1.7,0.4,2.6,0.4
						c1,0,1.9-0.1,2.7-0.4c0.8-0.2,1.4-0.6,2-1.2s1-1.3,1.2-2.1c0.3-0.9,0.4-1.9,0.4-3.2v-13.2h2v13.7c0,1.1-0.2,2.1-0.5,3.1
						c-0.3,1-0.8,1.9-1.5,2.6s-1.5,1.3-2.6,1.8s-2.3,0.6-3.8,0.6c-1.5,0-2.7-0.2-3.8-0.6c-1-0.4-1.9-1-2.6-1.8s-1.2-1.6-1.5-2.6
						c-0.3-1-0.5-2-0.5-3.1v-13.7H488.9z"/>
					<path class="st3" d="M514.2,194.5c0.4,0.7,0.8,1.3,1.5,1.8s1.4,0.8,2.2,0.9c0.9,0.2,1.8,0.3,2.8,0.3c0.6,0,1.2-0.1,1.8-0.2
						c0.7-0.2,1.3-0.4,1.8-0.8c0.6-0.4,1-0.8,1.4-1.4c0.4-0.6,0.6-1.2,0.6-2c0-0.6-0.1-1.1-0.4-1.6c-0.3-0.4-0.6-0.8-1-1.1
						s-0.9-0.5-1.4-0.7c-0.5-0.2-1-0.4-1.5-0.5l-4.8-1.2c-0.6-0.2-1.2-0.4-1.8-0.6c-0.6-0.2-1.1-0.6-1.5-1c-0.4-0.4-0.8-0.9-1.1-1.5
						c-0.3-0.6-0.4-1.3-0.4-2.1c0-0.5,0.1-1.1,0.3-1.8s0.6-1.4,1.1-2s1.3-1.1,2.3-1.6c1-0.4,2.2-0.6,3.7-0.6c1.1,0,2.1,0.1,3,0.4
						c1,0.3,1.8,0.7,2.5,1.3c0.7,0.6,1.3,1.2,1.7,2.1s0.7,1.8,0.7,2.9h-2c0-0.8-0.2-1.5-0.5-2.1c-0.3-0.6-0.8-1.1-1.3-1.5
						c-0.5-0.4-1.1-0.7-1.8-0.9c-0.7-0.2-1.4-0.3-2.2-0.3c-0.7,0-1.4,0.1-2,0.2c-0.6,0.1-1.2,0.4-1.7,0.7s-0.9,0.8-1.2,1.3
						c-0.3,0.5-0.5,1.2-0.5,2c0,0.5,0.1,0.9,0.2,1.3c0.2,0.4,0.4,0.7,0.7,0.9c0.3,0.3,0.6,0.5,1,0.6c0.4,0.2,0.8,0.3,1.2,0.4
						l5.2,1.3c0.8,0.2,1.5,0.4,2.1,0.7c0.7,0.3,1.3,0.6,1.8,1.1c0.5,0.4,0.9,0.9,1.2,1.6c0.3,0.6,0.4,1.4,0.4,2.2c0,0.2,0,0.6-0.1,1
						c0,0.4-0.2,0.8-0.4,1.3s-0.5,0.9-0.8,1.4c-0.3,0.5-0.8,0.9-1.4,1.2c-0.6,0.4-1.4,0.7-2.3,0.9c-0.9,0.2-2,0.4-3.2,0.4
						s-2.4-0.1-3.5-0.4c-1.1-0.3-2-0.7-2.8-1.3s-1.3-1.4-1.8-2.3c-0.4-0.9-0.6-2.1-0.5-3.4h2C513.7,192.9,513.8,193.8,514.2,194.5z"
						/>
				</g>
			</g>
			<polygon class="st3" points="567.3,152.6 567.3,114.5 583,114.5 589.2,105.1 567.3,105.1 567.3,68 613.8,68 620,58.6 556.9,58.6 
				556.9,142.7 563.8,161.8 622.1,161.8 622.1,152.6 			"/>
			<path class="st3" d="M434.7,162.2c-4.4,0-8.5-0.7-12.2-2.1s-7-3.4-9.7-6c-2.7-2.6-4.8-5.7-6.4-9.4c-1.6-3.7-2.4-7.8-2.5-12.2h10
				c0.3,6.2,2.2,11.3,5.9,15.1c3.6,3.8,8.6,5.7,14.9,5.7c2.8,0,5.3-0.5,7.8-1.6c2.4-1.1,4.6-2.5,6.4-4.3c1.8-1.8,3.3-3.9,4.3-6.3
				c1-2.4,1.6-5,1.6-7.8c0-3.4-0.6-6.2-1.9-8.5c-1.3-2.3-3-4.2-5.1-5.8c-2.1-1.6-4.5-3-7.1-4.1c-2.7-1.1-5.3-2.1-8-2.9
				c-3.6-1-6.9-2.1-10-3.4c-3.1-1.2-5.9-2.8-8.2-4.8c-2.4-2-4.3-4.4-5.6-7.3c-1.4-2.9-2.1-6.5-2.1-10.8c0-3.9,0.8-7.5,2.3-10.8
				c1.5-3.2,3.5-6.1,6-8.5s5.5-4.2,8.9-5.6c3.4-1.3,7-2,10.9-2s7.4,0.7,10.8,2.1c3.3,1.4,6.2,3.3,8.7,5.7c2.5,2.4,4.4,5.3,5.9,8.7
				s2.1,6.9,2.1,10.8h-9.8c0-2.5-0.5-4.8-1.4-7c-0.9-2.2-2.2-4.1-3.8-5.8c-1.6-1.7-3.5-2.9-5.6-3.9c-2.1-1-4.5-1.4-6.9-1.4
				c-2.5,0-4.8,0.4-7,1.3c-2.2,0.9-4.1,2.1-5.8,3.6c-1.7,1.5-3,3.3-3.9,5.5c-1,2.2-1.4,4.5-1.4,6.9c0,3.4,0.8,6.1,2.3,8.2
				c1.5,2.1,3.4,3.8,5.8,5.1c2.3,1.3,4.9,2.4,7.8,3.2s5.5,1.6,8.1,2.4c3.6,1.1,6.8,2.5,9.8,4.2c2.9,1.7,5.5,3.7,7.6,6.1
				c2.1,2.3,3.8,5.1,5,8.1c1.2,3.1,1.8,6.5,1.8,10.4c0,4.1-0.8,8-2.4,11.6c-1.6,3.6-3.8,6.7-6.5,9.3c-2.7,2.6-5.9,4.7-9.5,6.2
				C442.7,161.4,438.8,162.2,434.7,162.2z"/>
			<polygon class="st3" points="554.6,198.2 507,70.7 475.1,161.9 464.1,161.9 500.2,58.5 513.7,58.5 565.9,198.2 			"/>
			<path class="st3" d="M583.3,176.6h2.1v20.1h12.2v1.8h-14.3V176.6z"/>
			<path class="st3" d="M615.4,176.6h2.3l8.6,21.9H624l-2.7-6.8h-10l-2.6,6.8h-2.2L615.4,176.6z M612.1,189.9h8.6l-4.2-11.2
				L612.1,189.9z"/>
			<path class="st3" d="M655.2,176.6h7.6c6.6,0.1,10,3.8,10,10.9s-3.5,10.8-10,10.9h-7.6V176.6z M657.2,196.7h4.4c6.3,0,9-2.6,9-9.1
				c0-6.5-2.7-9.2-9-9.2h-4.4V196.7z"/>
			<path class="st3" d="M685.3,176.6h15.1v1.8h-13v7.9h12.2v1.8h-12.2v8.6h13.2v1.8h-15.2V176.6z"/>
			<path class="st3" d="M712.7,176.6h2.1v9.5h13v-9.5h2.1v21.9h-2.1v-10.6h-13v10.6h-2.1V176.6z"/>
			<path class="st3" d="M743.4,176.6h15.1v1.8h-13v7.9h12.2v1.8h-12.2v8.6h13.2v1.8h-15.2V176.6z"/>
			<path class="st3" d="M771.8,191.3c-0.1,4.5,3.2,5.9,7.1,5.9c2.3,0,5.8-1.3,5.8-4.4c0-2.5-2.5-3.5-4.5-3.9l-4.9-1.2
				c-2.6-0.6-4.9-1.9-4.9-5.3c0-2.1,1.4-6.2,7.5-6.2c4.3,0,8.1,2.3,8.1,6.8h-2.1c-0.1-3.3-2.9-5-6-5c-2.8,0-5.5,1.1-5.5,4.3
				c0,2.1,1.5,2.9,3.3,3.3l5.3,1.3c3.1,0.8,5.7,2.2,5.7,5.8c0,1.5-0.6,6.2-8.4,6.2c-5.2,0-9-2.3-8.7-7.6L771.8,191.3L771.8,191.3z"
				/>
			<path class="st3" d="M805.7,176.6h2.3l8.6,21.9h-2.2l-2.7-6.8h-10l-2.6,6.8h-2.2L805.7,176.6z M802.4,189.9h8.6l-4.2-11.2
				L802.4,189.9z"/>
		</g>
	</g>
	<g>
		<g>
			<path class="st3" d="M158.2,96.6H149v-3.1h22.2v3.1h-9.2v24.7h-3.7V96.6z"/>
			<path class="st3" d="M186,92.8c8.8,0,13.3,7,13.3,14.6s-4.5,14.5-13.3,14.5c-8.8,0-13.3-7-13.3-14.5
				C172.7,99.8,177.2,92.8,186,92.8z M186,118.8c6.8,0,9.6-5.8,9.6-11.4s-2.9-11.4-9.6-11.4c-6.8,0-9.6,5.8-9.6,11.4
				C176.4,113,179.2,118.8,186,118.8z"/>
			<path class="st3" d="M228.9,121.2H225l-6.3-23.3h-0.1l-6.4,23.3h-3.9l-7.1-27.8h3.8l5.4,23.1h0.1l6.2-23.1h4l6.1,23.1h0.1
				l5.6-23.1h3.7L228.9,121.2z"/>
			<path class="st3" d="M239.7,93.5h3.9l14.6,22.5h0.1V93.5h3.5v27.8h-4L243.3,99h-0.1v22.3h-3.5L239.7,93.5L239.7,93.5z"/>
		</g>
	</g>
	<g>
		<g>
			<path class="st3" d="M108.6,129.5h3.7v11.9h14.6v-11.9h3.7v27.8h-3.7v-12.7h-14.6v12.7h-3.7C108.6,157.2,108.6,129.5,108.6,129.5
				z"/>
			<path class="st3" d="M148.4,128.8c8.8,0,13.3,7,13.3,14.6c0,7.5-4.5,14.5-13.3,14.5c-8.8,0-13.3-7-13.3-14.5
				C135.1,135.8,139.6,128.8,148.4,128.8z M148.4,154.8c6.8,0,9.6-5.8,9.6-11.4s-2.8-11.4-9.6-11.4c-6.8,0-9.6,5.8-9.6,11.4
				C138.8,148.9,141.7,154.8,148.4,154.8z"/>
			<path class="st3" d="M188.4,147.2c0,7-4,10.7-10.9,10.7c-7.2,0-11.4-3.3-11.4-10.7v-17.7h3.7v17.7c0,4.9,2.8,7.6,7.7,7.6
				c4.7,0,7.2-2.7,7.2-7.6v-17.7h3.7L188.4,147.2L188.4,147.2z"/>
			<path class="st3" d="M210.4,137.6c-0.4-4-3.1-5.7-6.9-5.7c-3.1,0-6.2,1.1-6.2,4.8c0,3.4,4.4,3.9,8.9,4.9c4.4,1,8.9,2.6,8.9,8
				c0,5.9-5.8,8.3-10.9,8.3c-6.2,0-11.5-3-11.5-9.8h3.5c0,4.7,3.9,6.7,8.1,6.7c3.4,0,7-1.1,7-5.1c0-3.8-4.4-4.5-8.9-5.4
				c-4.4-1-8.9-2.3-8.9-7.4c0-5.6,5-8.1,10.1-8.1c5.7,0,10,2.7,10.2,8.8H210.4z"/>
			<path class="st3" d="M219.5,129.5h19.2v3.1h-15.5v8.8h14.4v3.1h-14.4v9.6h15.6v3.1h-19.3V129.5z"/>
			<path class="st3" d="M259.3,137.6c-0.4-4-3.1-5.7-6.9-5.7c-3.1,0-6.2,1.1-6.2,4.8c0,3.4,4.4,3.9,8.9,4.9c4.4,1,8.9,2.6,8.9,8
				c0,5.9-5.8,8.3-10.9,8.3c-6.2,0-11.5-3-11.5-9.8h3.5c0,4.7,3.9,6.7,8.1,6.7c3.3,0,7-1.1,7-5.1c0-3.8-4.4-4.5-8.9-5.4
				c-4.4-1-8.9-2.3-8.9-7.4c0-5.6,5-8.1,10.1-8.1c5.7,0,10,2.7,10.2,8.8H259.3z"/>
		</g>
	</g>
</g>
</svg>
