<svg xmlns="http://www.w3.org/2000/svg" width="68" height="101" viewBox="0 0 68 101">
  <g id="Grupo_45" data-name="Grupo 45" transform="translate(-1583 -576)">
    <text id="Calefacción_radiadores" data-name="Calefacción
radiadores" transform="translate(1583 645)" fill="#3d3d3d" font-size="10" font-family="OpenSans-Semibold, Open Sans" font-weight="600"><tspan x="6.368" y="11">Calefacción</tspan><tspan x="8.094" y="24">radiadores</tspan></text>
    <g id="Icon-12" transform="translate(1582.75 576.26)">
      <path id="Trazado_88" data-name="Trazado 88" d="M35.187,62.676H27.949a1.039,1.039,0,0,1-1.039-1.039V41.269a1.039,1.039,0,0,1,1.039-1.039h7.238a1.039,1.039,0,0,1,1.039,1.039V61.637a1.039,1.039,0,0,1-1.039,1.039Zm-6.2-2.078h5.16V42.308h-5.16Z" transform="translate(-11.189 -16.774)" fill="#3d3d3d"/>
      <path id="Trazado_89" data-name="Trazado 89" d="M47.627,62.676H40.389a1.039,1.039,0,0,1-1.039-1.039V41.269a1.039,1.039,0,0,1,1.039-1.039h7.238a1.039,1.039,0,0,1,1.039,1.039V61.637A1.039,1.039,0,0,1,47.627,62.676Zm-6.2-2.078h5.166V42.308H41.422Z" transform="translate(-16.567 -16.774)" fill="#3d3d3d"/>
      <path id="Trazado_90" data-name="Trazado 90" d="M60.077,62.676H52.833A1.033,1.033,0,0,1,51.8,61.637V41.269a1.033,1.033,0,0,1,1.033-1.039h7.244a1.033,1.033,0,0,1,1.033,1.039V61.637a1.033,1.033,0,0,1-1.033,1.039Zm-6.2-2.078h5.166V42.308H53.872Z" transform="translate(-21.949 -16.774)" fill="#3d3d3d"/>
      <path id="Trazado_91" data-name="Trazado 91" d="M72.517,62.676H65.279a1.039,1.039,0,0,1-1.039-1.039V41.269a1.039,1.039,0,0,1,1.039-1.039h7.238a1.039,1.039,0,0,1,1.039,1.039V61.637a1.039,1.039,0,0,1-1.039,1.039Zm-6.2-2.078h5.172V42.308H66.318Z" transform="translate(-27.327 -16.774)" fill="#3d3d3d"/>
      <path id="Trazado_92" data-name="Trazado 92" d="M84.957,62.676H77.719a1.039,1.039,0,0,1-1.039-1.039V41.269a1.039,1.039,0,0,1,1.039-1.039h7.238A1.039,1.039,0,0,1,86,41.269V61.637a1.039,1.039,0,0,1-1.039,1.039Zm-6.2-2.078h5.16V42.308h-5.16Z" transform="translate(-32.705 -16.774)" fill="#3d3d3d"/>
      <path id="Trazado_93" data-name="Trazado 93" d="M64.217,42.308H22.209a1.039,1.039,0,0,1,0-2.078H64.217a1.039,1.039,0,0,1,0,2.078Z" transform="translate(-8.707 -16.774)" fill="#3d3d3d"/>
      <rect id="Rectángulo_56" data-name="Rectángulo 56" width="68" height="69" transform="translate(0.25 -0.26)" fill="none"/>
    </g>
  </g>
</svg>
